<?xml version="1.0" encoding="UTF-8"?>
<svg width="10px" height="18px" viewBox="0 0 10 18" version="1.1" xmlns="http://www.w3.org/2000/svg" xmlns:xlink="http://www.w3.org/1999/xlink">
    <!-- Generator: Sketch 52.2 (67145) - http://www.bohemiancoding.com/sketch -->
    <title>icon_Facebook</title>
    <desc>Created with Sketch.</desc>
    <g id="v2" stroke="none" stroke-width="1" fill="none" fill-rule="evenodd">
        <g id="Informate-pg6" transform="translate(-982.500000, -888.000000)" fill="#414042">
            <g id="Noticia" transform="translate(450.000000, 390.000000)">
                <g id="Social" transform="translate(491.000000, 498.000000)">
                    <path d="M47.994,17.992 L43.996,17.992 L43.996,9.496 L41.998,9.496 L41.998,6.222 L43.996,6.222 L43.996,4.258 C43.996,1.589 45.124,0 48.329,0 L50.997,0 L50.997,3.274 L49.33,3.274 C48.082,3.274 47.999,3.731 47.999,4.585 L47.994,6.222 L51.016,6.222 L50.662,9.496 L47.994,9.496 L47.994,17.992 L47.994,17.992 Z" id="icon_Facebook"></path>
                </g>
            </g>
        </g>
    </g>
</svg>