<?xml version="1.0" encoding="UTF-8"?>
<svg width="83px" height="103px" viewBox="0 0 83 103" version="1.1" xmlns="http://www.w3.org/2000/svg" xmlns:xlink="http://www.w3.org/1999/xlink">
    <!-- Generator: sketchtool 52.4 (67378) - http://www.bohemiancoding.com/sketch -->
    <title>3B274B77-AA6F-4CC8-A776-A3BC5EA85603</title>
    <desc>Created with sketchtool.</desc>
    <g id="v2" stroke="none" stroke-width="1" fill="none" fill-rule="evenodd">
        <g id="Neo_home_s1-pg1" transform="translate(-1060.000000, -1793.000000)">
            <g id="Section-3" transform="translate(213.000000, 1709.000000)">
                <g id="Ofertas-Laborales" transform="translate(772.000000, 84.000000)">
                    <g id="icon_ofertas" transform="translate(75.000000, 0.000000)">
                        <ellipse id="Oval" fill="#B8E986" cx="41.5" cy="51.3992172" rx="41.5" ry="41.7240705"></ellipse>
                        <path d="M71.7990097,26.721546 L74.948599,26.721546 L74.948599,42.2642661 L71.7990097,42.2642661 C70.337859,42.2642661 68.9365532,41.6806923 67.9033637,40.6419243 C66.8701741,39.6031563 66.2897343,38.1942845 66.2897343,36.7252446 L66.2897343,32.2504892 C66.2952634,29.1953087 68.7602313,26.7215409 71.7990097,26.721546 Z" id="Path" fill="#FF8955" transform="translate(70.619167, 34.492906) rotate(180.000000) translate(-70.619167, -34.492906) "></path>
                        <path d="M70.6181643,42.1272016 C72.5484773,41.7004925 74.1041258,40.2679354 74.6959903,38.3720352 L74.6959903,30.6036986 C74.1031586,28.708811 72.547786,27.2772768 70.6181643,26.8505479 L70.6181643,42.1272016 Z" id="Path" fill="#FE636D"></path>
                        <path d="M79.2589855,88.0478669 C79.2589855,82.5007828 76.5183816,77.2520157 71.8411111,74.2970646 C70.5145842,73.4551519 69.0734278,72.8114814 67.5628019,72.3862231 L60.2752415,70.3463796 L41.5,76.6392564 L22.7247585,70.3463796 L15.4472222,72.3842074 C13.9310349,72.8080015 12.48438,73.4517147 11.1528744,74.2950489 C6.48161836,77.25 3.735,82.4987671 3.735,88.0458513 L3.735,101.81681 L79.2589855,101.81681 L79.2589855,88.0478669 Z" id="Path" fill="#FE8557"></path>
                        <polygon id="Path" fill="#FE636D" points="73.1642995 101.818826 79.2589855 101.818826 79.2589855 83.3876712 73.1642995 74.6699609"></polygon>
                        <path d="M11.5698792,101.818826 L17.6645652,101.818826 L17.6645652,86.0826027 C14.2985631,86.0826027 11.5698792,88.8260196 11.5698792,92.2101957 L11.5698792,101.818826 Z" id="Path" fill="#FE636D"></path>
                        <polygon id="Path" fill="#FFFFFF" points="50.7001691 74.8735421 41.5 76.641272 32.2998309 74.8735421 32.2998309 51.5443444 50.7001691 51.5443444"></polygon>
                        <polygon id="Path" fill="#BFC0C0" opacity="0.497805" points="50.8886232 67.2019569 44.665628 72.4204892 44.665628 60.9635029 50.8886232 60.9635029"></polygon>
                        <path d="M41.5,77.8224462 C41.4259538,77.8221564 41.3521056,77.8147318 41.2794686,77.800274 L32.0772947,76.0345597 C31.5236342,75.927365 31.1233886,75.4404191 31.1229952,74.8735421 L31.1229952,51.5443444 C31.1229952,50.8919999 31.6489849,50.3631703 32.2978261,50.3631703 L50.6981643,50.3631703 C51.0097488,50.3631703 51.3085716,50.487615 51.5288952,50.7091282 C51.7492187,50.9306413 51.8729952,51.2310776 51.8729952,51.5443444 L51.8729952,74.8735421 C51.8726017,75.4404191 51.4723561,75.927365 50.9186957,76.0345597 L41.7205314,77.8043053 C41.6477648,77.8174108 41.5739177,77.8234854 41.5,77.8224462 Z M33.4806763,73.8959491 L41.5,75.4379256 L49.5193237,73.8959491 L49.5193237,52.7315656 L33.4806763,52.7315656 L33.4806763,73.8959491 Z" id="Shape" fill="#414042" fill-rule="nonzero"></path>
                        <path d="M36.7766184,14.9158513 C36.7766184,14.899726 36.8086957,14.9158513 36.8247343,14.9158513 L36.9690821,14.9158513 C36.874321,15.6612364 36.8261106,16.4118593 36.8247343,17.1633072 C36.8247343,27.084364 49.4992754,35.1268297 59.3670531,35.1268297 C59.7680193,35.1268297 60.1489372,35.1086888 60.5338647,35.084501 L60.5338647,43.6953816 C60.5338647,54.2642528 52.0121132,62.8320157 41.5,62.8320157 C30.9878868,62.8320157 22.4661353,54.2642528 22.4661353,43.6953816 L22.4661353,34.0444227 C22.4661353,34.0444227 33.8235024,30.5694325 36.7766184,14.9158513 Z" id="Path" fill="#FFFFFF"></path>
                        <polygon id="Path" fill="#818283" opacity="0.5" points="59.784058 49.7584736 53.5630676 58.4943249 53.5630676 35.0683757 59.784058 35.0683757"></polygon>
                        <path d="M36.7766184,14.9158513 L36.8247343,14.9158513 L36.9690821,14.9158513 C36.874321,15.6612364 36.8261106,16.4118593 36.8247343,17.1633072 C36.8247343,27.084364 49.4992754,35.1268297 59.3670531,35.1268297 C59.7680193,35.1268297 60.1489372,35.1086888 60.5338647,35.084501 L60.5338647,43.6953816 C60.5338647,44.7153033 60.4536715,62.1708806 60.2992995,63.1484736 C63.7669715,62.515374 66.2883185,59.4798691 66.2897343,55.9364579 L66.2897343,25.9031898 C66.2897343,19.2930451 63.6779662,12.9536347 59.0289892,8.27955654 C54.3800122,3.60547838 48.0746463,0.979608611 41.5,0.979608611 C27.8090078,0.979608611 16.7102657,12.138276 16.7102657,25.9031898 L16.7102657,39.4786301 C16.7110329,43.0218712 19.2329065,46.0571615 22.7007005,46.6886301 C22.5441942,45.6972982 22.4657622,44.6950924 22.4661353,43.6913503 L22.4661353,34.0444227 C22.4661353,34.0444227 35.583744,26.7477495 36.7766184,14.9158513 Z" id="Path" fill="#414042"></path>
                        <path d="M13.5626812,26.721546 L16.7122705,26.721546 L16.7122705,42.2642661 L13.5626812,42.2642661 C10.5199924,42.2642661 8.0534058,39.7843617 8.0534058,36.7252446 L8.0534058,32.2504892 C8.05893487,29.1953087 10.5239028,26.7215409 13.5626812,26.721546 Z" id="Path" fill="#FE8557"></path>
                        <path d="M43.953913,56.9906458 L39.046087,56.9906458 C37.3320832,56.9906458 35.9426087,55.5936691 35.9426087,53.870411 C35.9426087,52.1471528 37.3320832,50.7501761 39.046087,50.7501761 L43.953913,50.7501761 C45.6679168,50.7501761 47.0573913,52.1471528 47.0573913,53.870411 C47.0573913,55.5936691 45.6679168,56.9906458 43.953913,56.9906458 Z" id="Path" fill="#FE8557"></path>
                        <path d="M79.2589855,103 L3.74101449,103 C3.09217329,103 2.56618357,102.47117 2.56618357,101.818826 L2.56618357,88.0478669 C2.56618357,82.0573386 5.6155314,76.4034247 10.5253623,73.2972994 C11.9549102,72.39188 13.5083492,71.7012811 15.1364734,71.2473777 L22.4140097,69.2095499 C22.6399036,69.1475157 22.878895,69.15312 23.1016667,69.2256751 L41.5,75.3955969 L59.9043478,69.2256751 C60.1271195,69.15312 60.3661109,69.1475157 60.5920048,69.2095499 L67.8675362,71.2473777 C69.4953468,71.7012208 71.0487003,72.3911027 72.4786473,73.2952838 C77.3884783,76.4034247 80.4378261,82.0573386 80.4378261,88.0478669 L80.4378261,101.818826 C80.4378279,102.132792 80.3135012,102.433841 80.0923097,102.655471 C79.8711181,102.8771 79.5712642,103.001072 79.2589855,103 Z M4.91584541,100.635636 L78.0921739,100.635636 L78.0921739,88.0478669 C78.0921739,82.8615851 75.4618357,77.969589 71.2296377,75.2968297 C69.9945232,74.5146389 68.6525291,73.9177683 67.2460386,73.5250685 L60.3153382,71.5839922 L41.8708937,77.7619765 C41.6301432,77.8426633 41.3698568,77.8426633 41.1291063,77.7619765 L22.6846618,71.5839922 L15.7539614,73.5250685 C14.3473354,73.9173876 13.0052878,74.514282 11.7703623,75.2968297 C7.53816425,77.975636 4.90782609,82.8615851 4.90782609,88.0478669 L4.91584541,100.635636 Z" id="Shape" fill="#414042" fill-rule="nonzero"></path>
                        <path d="M17.6645652,103 C17.015724,103 16.4897343,102.47117 16.4897343,101.818826 L16.4897343,86.0826027 C16.4897343,85.4302583 17.015724,84.9014286 17.6645652,84.9014286 C18.3134064,84.9014286 18.8393961,85.4302583 18.8393961,86.0826027 L18.8393961,101.818826 C18.8393961,102.47117 18.3134064,103 17.6645652,103 Z" id="Path" fill="#414042"></path>
                        <path d="M65.3354348,103 C64.6865936,103 64.1606039,102.47117 64.1606039,101.818826 L64.1606039,86.0826027 C64.1606039,85.4302583 64.6865936,84.9014286 65.3354348,84.9014286 C65.984276,84.9014286 66.5102657,85.4302583 66.5102657,86.0826027 L66.5102657,101.818826 C66.5102657,102.47117 65.984276,103 65.3354348,103 Z" id="Path" fill="#414042"></path>
                        <polygon id="Rectangle" fill="#50E3C2" transform="translate(32.110711, 73.493699) rotate(45.000000) translate(-32.110711, -73.493699) " points="23.2235395 69.0321917 40.9739874 69.0799826 40.9978828 77.9552065 23.2474349 77.9074156"></polygon>
                        <polygon id="Rectangle" fill="#50E3C2" transform="translate(50.888224, 73.493685) rotate(135.000000) translate(-50.888224, -73.493685) " points="42.0249475 69.0799684 59.7753954 69.0321775 59.7515 77.9074014 42.0010521 77.9551923"></polygon>
                        <path d="M69.4373188,43.4454403 L66.2897343,43.4454403 C65.9778026,43.4459755 65.6784644,43.321767 65.4577071,43.1001959 C65.2369497,42.8786247 65.1128981,42.5778826 65.1128986,42.2642661 L65.1128986,26.721546 C65.1128981,26.4079296 65.2369497,26.1071874 65.4577071,25.8856163 C65.6784644,25.6640451 65.9778026,25.5398366 66.2897343,25.5403718 L69.4373188,25.5403718 C73.1235682,25.543693 76.1125893,28.5443459 76.1214251,32.2504892 L76.1214251,36.7252446 C76.1181091,40.4353244 73.1274744,43.4421064 69.4373188,43.4454403 Z M67.4645652,41.083092 L69.4373188,41.083092 C71.8321413,41.0830943 73.7744593,39.1329951 73.7777778,36.7252446 L73.7777778,32.2504892 C73.7744625,29.845425 71.835483,27.896878 69.4433333,27.8946575 L67.4705797,27.8946575 L67.4645652,41.083092 Z" id="Shape" fill="#414042" fill-rule="nonzero"></path>
                        <path d="M16.7102657,43.4454403 L13.5626812,43.4454403 C9.8725256,43.4421064 6.88189088,40.4353244 6.87857488,36.7252446 L6.87857488,32.2504892 C6.88299578,28.5411967 9.8733074,25.5356412 13.5626812,25.5323092 L16.7102657,25.5323092 C17.0221974,25.531774 17.3215356,25.6559825 17.5422929,25.8775537 C17.7630503,26.0991248 17.8871019,26.399867 17.8871014,26.7134834 L17.8871014,42.2562035 C17.8892407,42.5712147 17.7661336,42.8740339 17.5451435,43.0973526 C17.3241535,43.3206714 17.023592,43.4459852 16.7102657,43.4454403 Z M13.5626812,27.9027202 C11.1713066,27.9015965 9.22995746,29.8462153 9.22222222,32.2504892 L9.22222222,36.7252446 C9.22553514,39.1306362 11.1641927,41.0797612 13.5566667,41.083092 L15.5294203,41.083092 L15.5294203,27.9027197 L13.5626812,27.9027202 Z" id="Shape" fill="#414042" fill-rule="nonzero"></path>
                        <path d="M60.2992995,64.3256164 C59.9554013,64.3257739 59.6287018,64.1744296 59.4053726,63.9115026 C59.1820434,63.6485755 59.0845115,63.3004694 59.1385024,62.959002 C59.2668116,61.9048141 59.3590338,45.7856164 59.3590338,43.6913503 L59.3590338,36.3039726 C54.2066184,36.3039726 48.3525121,34.2500196 43.6992995,30.8133268 C38.5087923,26.9835812 35.6478986,22.1298826 35.6478986,17.1592759 C35.6478986,16.602955 35.6759662,16.0284932 35.7280918,15.4459687 C35.5450113,15.0822914 35.5610094,14.6494767 35.7704329,14.3004646 C35.9798564,13.9514526 36.3532138,13.7353919 36.7585749,13.7286301 C36.8267391,13.7286301 36.8828744,13.7286301 36.9430193,13.7286301 L36.9771014,13.7286301 C37.312856,13.7305342 37.6316982,13.8770249 37.852879,14.1310027 C38.0740599,14.3849805 38.1763664,14.7220868 38.1338889,15.0569472 C38.0466909,15.7536554 38.0018331,16.4550616 37.9995652,17.1572603 C37.9995652,21.3578865 40.5176329,25.5302935 45.0906522,28.9065166 C49.3589372,32.0569863 54.6957971,33.9456556 59.3670531,33.9456556 C59.6938406,33.9456556 60.0406763,33.9335616 60.4576812,33.9053425 C60.7799643,33.8836822 61.0968659,33.9966133 61.333641,34.2174995 C61.5704162,34.4383858 61.7061021,34.7476711 61.7086957,35.072407 L61.7086957,43.6832877 C61.7086957,43.8344618 61.6605797,56.6419374 61.5402899,61.5178082 C63.7189061,60.5187909 65.1157615,58.3318084 65.1128986,55.924364 L65.1128986,25.8910959 C65.1128986,12.7796398 54.5410438,2.1507045 41.5,2.1507045 C28.4589562,2.1507045 17.8871014,12.7796398 17.8871014,25.8910959 L17.8871014,39.4665362 C17.8847967,41.8234128 19.2237586,43.9738732 21.3334058,45.0015264 C21.3053382,44.5607697 21.2913043,44.120013 21.2913043,43.6792564 L21.2913043,34.0444227 C21.2913043,33.3920782 21.8172941,32.8632485 22.4661353,32.8632485 C23.1149765,32.8632485 23.6409662,33.3920782 23.6409662,34.0444227 L23.6409662,43.6913503 C23.6410642,44.6363365 23.7148002,45.5798626 23.8614976,46.5132681 C23.92175,46.8912773 23.7957247,47.2751683 23.5235025,47.5428496 C23.2512802,47.8105308 22.8667467,47.9286818 22.4921981,47.859726 C18.4621844,47.1312935 15.5310402,43.6034218 15.5354348,39.4866928 L15.5354348,25.9031898 C15.7120674,11.6135601 27.2840074,0.12282977 41.4979952,0.12282977 C55.7119829,0.12282977 67.2839229,11.6135601 67.4605556,25.9031898 L67.4605556,55.9364579 C67.4588242,60.0475226 64.5316312,63.5684273 60.5078019,64.2994129 C60.4391944,64.3142454 60.3694275,64.3230134 60.2992995,64.3256164 Z" id="Path" fill="#414042"></path>
                        <path d="M41.5,64.0091585 C30.3445413,63.9958303 21.304561,54.9070406 21.2913043,43.6913503 L21.2913043,34.0444227 C21.2904306,33.5247765 21.6285672,33.0660321 22.1233092,32.9156556 C22.1473671,32.9156556 24.8398551,32.046908 27.8310628,29.3801957 C31.8407246,25.8104697 34.457029,20.8680822 35.6218357,14.6900978 C35.7376031,14.0752256 36.3068404,13.6552375 36.9249758,13.7286301 L36.9771014,13.7286301 C37.312856,13.7305342 37.6316982,13.8770249 37.852879,14.1310027 C38.0740599,14.3849805 38.1763664,14.7220868 38.1338889,15.0569472 C38.0466909,15.7536554 38.0018331,16.4550616 37.9995652,17.1572603 C37.9995652,21.3578865 40.5176329,25.5302935 45.0906522,28.9065166 C49.3589372,32.0569863 54.6957971,33.9456556 59.3670531,33.9456556 C59.6938406,33.9456556 60.0406763,33.9335616 60.4576812,33.9053425 C60.7799643,33.8836822 61.0968659,33.9966133 61.333641,34.2174995 C61.5704162,34.4383858 61.7061021,34.7476711 61.7086957,35.072407 L61.7086957,43.6832877 C61.699858,54.9021264 52.658586,63.9958221 41.5,64.0091585 Z M23.6409662,34.8708415 L23.6409662,43.6994129 C23.6409662,53.6159396 31.636728,61.6548728 41.5,61.6548728 C51.363272,61.6548728 59.3590338,53.6159396 59.3590338,43.6994129 L59.3590338,36.3039726 C54.2066184,36.3039726 48.3525121,34.2500196 43.6992995,30.8133268 C39.8901208,27.991409 37.3319565,24.6333268 36.2433333,21.0756947 C34.3126812,26.0120352 31.5500242,29.2471624 29.2885749,31.2386301 C27.6097269,32.7430748 25.7033244,33.9691613 23.6409662,34.8708415 Z" id="Shape" fill="#414042" fill-rule="nonzero"></path>
                        <path d="M43.953913,58.17182 L39.046087,58.17182 C36.683242,58.17182 34.7677778,56.2460136 34.7677778,53.870411 C34.7677778,51.4948084 36.683242,49.569002 39.046087,49.569002 L43.953913,49.569002 C46.316758,49.569002 48.2322222,51.4948084 48.2322222,53.870411 C48.2322222,56.2460136 46.316758,58.17182 43.953913,58.17182 Z M39.046087,51.9232877 C38.342581,51.9004744 37.6825826,52.2647945 37.3241158,52.8738184 C36.9656489,53.4828423 36.9656489,54.2398387 37.3241158,54.8488626 C37.6825826,55.4578865 38.342581,55.8222066 39.046087,55.7993933 L43.953913,55.7993933 C44.657419,55.8222066 45.3174174,55.4578865 45.6758842,54.8488626 C46.0343511,54.2398387 46.0343511,53.4828423 45.6758842,52.8738184 C45.3174174,52.2647945 44.657419,51.9004744 43.953913,51.9232877 L39.046087,51.9232877 Z" id="Shape" fill="#414042" fill-rule="nonzero"></path>
                        <path d="M60.8606522,55.1060078 L47.0573913,55.1060078 C46.4268707,55.0798262 45.9291184,54.5582912 45.9291184,53.9238258 C45.9291184,53.2893604 46.4268707,52.7678254 47.0573913,52.7416438 L60.8606522,52.7416438 C63.208511,52.7383108 65.1106901,50.8249596 65.1128986,48.4644227 L65.1128986,30.6036986 C65.1389396,29.9697736 65.6576737,29.4693339 66.2887319,29.4693339 C66.91979,29.4693339 67.4385242,29.9697736 67.4645652,30.6036986 L67.4645652,48.4644227 C67.4590481,52.1293822 64.5059279,55.0993485 60.8606522,55.1060078 Z" id="Path" fill="#414042"></path>
                        <path d="M35.2409179,84.1153229 C34.9294377,84.1151548 34.6308176,83.9904206 34.4109179,83.7686301 L21.8927536,71.1828767 C21.6717709,70.961605 21.5475482,70.6609529 21.5475482,70.3473875 C21.5475482,70.033822 21.6717709,69.73317 21.8927536,69.5118982 L28.1518357,63.2190215 C28.3721813,62.9973414 28.6711206,62.8727906 28.9828382,62.8727906 C29.2945558,62.8727906 29.593495,62.9973414 29.8138406,63.2190215 L42.3320048,75.804775 C42.7889629,76.2670307 42.7889629,77.0134977 42.3320048,77.4757534 L36.0729227,83.7686301 C35.8520335,83.9901649 35.5529174,84.1148053 35.2409179,84.1153229 Z M24.3867633,70.3463796 L35.2409179,81.2591389 L39.8379952,76.6372407 L28.9818357,65.7244814 L24.3867633,70.3463796 Z" id="Shape" fill="#414042" fill-rule="nonzero"></path>
                        <polygon id="Path" fill="#0F9A7B" opacity="0.5" points="50.0746618 68.0203131 56.3718357 74.2728767 60.2752415 70.3483953 54.0181643 64.0555186"></polygon>
                        <path d="M47.7590821,84.1153229 C47.4470826,84.1148053 47.1479665,83.9901649 46.9270773,83.7686301 L40.6679952,77.4757534 C40.2110371,77.0134977 40.2110371,76.2670307 40.6679952,75.804775 L53.1861594,63.2190215 C53.406505,62.9973414 53.7054442,62.8727906 54.0171618,62.8727906 C54.3288794,62.8727906 54.6278187,62.9973414 54.8481643,63.2190215 L61.1072464,69.5118982 C61.3282291,69.73317 61.4524518,70.033822 61.4524518,70.3473875 C61.4524518,70.6609529 61.3282291,70.961605 61.1072464,71.1828767 L48.5890821,83.7686301 C48.3691824,83.9904206 48.0705623,84.1151548 47.7590821,84.1153229 Z M43.1620048,76.6392564 L47.7590821,81.2611546 L58.6132367,70.3463796 L54.0181643,65.7244814 L43.1620048,76.6392564 Z" id="Shape" fill="#414042" fill-rule="nonzero"></path>
                    </g>
                </g>
            </g>
        </g>
    </g>
</svg>