<?xml version="1.0" encoding="UTF-8"?>
<svg width="34px" height="34px" viewBox="0 0 34 34" version="1.1" xmlns="http://www.w3.org/2000/svg" xmlns:xlink="http://www.w3.org/1999/xlink">
    <!-- Generator: sketchtool 52.2 (67145) - http://www.bohemiancoding.com/sketch -->
    <title>EFB12D01-0C8A-4A3E-AF79-C419A3A0FBB7</title>
    <desc>Created with sketchtool.</desc>
    <g id="Page-1" stroke="none" stroke-width="1" fill="none" fill-rule="evenodd">
        <g id="Neo_home_s1" transform="translate(-152.000000, -2679.000000)">
            <g id="footer" transform="translate(0.000000, 2259.000000)">
                <g id="Follow-Us" transform="translate(150.000000, 387.000000)">
                    <g id="Social" transform="translate(2.000000, 33.000000)">
                        <g id="icon_Instagram">
                            <circle id="Oval" fill="#A6CE39" cx="17" cy="17" r="17"></circle>
                            <path d="M20.615587,8 L13.352913,8 C10.4013043,8 8,10.4013043 8,13.352913 L8,20.615587 C8,23.5671957 10.4013043,25.9685 13.352913,25.9685 L20.615587,25.9685 C23.5671957,25.9685 25.9685,23.5671957 25.9685,20.615587 L25.9685,13.352913 C25.9684674,10.4013043 23.567163,8 20.615587,8 Z M24.1608696,20.615587 C24.1608696,22.5735761 22.5735761,24.1608696 20.615587,24.1608696 L13.352913,24.1608696 C11.3949239,24.1608696 9.80763043,22.5735761 9.80763043,20.615587 L9.80763043,13.352913 C9.80763043,11.3948913 11.3949239,9.80763043 13.352913,9.80763043 L20.615587,9.80763043 C22.5735761,9.80763043 24.1608696,11.3948913 24.1608696,13.352913 L24.1608696,20.615587 Z M16.98425,12.3369565 C14.4217283,12.3369565 12.3369565,14.4217283 12.3369565,16.9842174 C12.3369565,19.5467065 14.4217283,21.6315109 16.98425,21.6315109 C19.5467717,21.6315109 21.6315435,19.5467391 21.6315435,16.9842174 C21.6315435,14.4216957 19.5467717,12.3369565 16.98425,12.3369565 Z M16.98425,19.823913 C15.4159348,19.823913 14.144587,18.5525652 14.144587,16.98425 C14.144587,15.4159348 15.4159674,14.144587 16.98425,14.144587 C18.5525652,14.144587 19.823913,15.4159348 19.823913,16.98425 C19.823913,18.5525326 18.5525326,19.823913 16.98425,19.823913 Z M21.6405435,13.4854348 C22.2555606,13.4854348 22.7541304,12.9868649 22.7541304,12.3718478 C22.7541304,11.7568307 22.2555606,11.2582609 21.6405435,11.2582609 C21.0255264,11.2582609 20.5269565,11.7568307 20.5269565,12.3718478 C20.5269565,12.9868649 21.0255264,13.4854348 21.6405435,13.4854348 Z" id="Intagram" fill="#FFFFFF" fill-rule="nonzero"></path>
                        </g>
                    </g>
                </g>
            </g>
        </g>
    </g>
</svg>