<?xml version="1.0" encoding="UTF-8"?>
<svg width="34px" height="34px" viewBox="0 0 34 34" version="1.1" xmlns="http://www.w3.org/2000/svg" xmlns:xlink="http://www.w3.org/1999/xlink">
    <!-- Generator: sketchtool 52.2 (67145) - http://www.bohemiancoding.com/sketch -->
    <title>F1A54E85-7290-478C-A163-59F95DF87CD1</title>
    <desc>Created with sketchtool.</desc>
    <g id="Page-1" stroke="none" stroke-width="1" fill="none" fill-rule="evenodd">
        <g id="Neo_home_s1" transform="translate(-203.000000, -2679.000000)">
            <g id="footer" transform="translate(0.000000, 2259.000000)">
                <g id="Follow-Us" transform="translate(150.000000, 387.000000)">
                    <g id="Social" transform="translate(2.000000, 33.000000)">
                        <g id="icon_Facebook" transform="translate(51.000000, 0.000000)">
                            <circle id="Oval" fill="#A6CE39" cx="17" cy="17" r="17"></circle>
                            <path d="M18.3191395,25 L14.7724551,25 L14.7724551,17.4446421 L13,17.4446421 L13,14.5331258 L14.7724551,14.5331258 L14.7724551,12.7865718 C14.7724551,10.4130725 15.7731204,9 18.6163229,9 L20.9831448,9 L20.9831448,11.9115162 L19.5043247,11.9115162 C18.3972056,11.9115162 18.3235751,12.3179191 18.3235751,13.0773677 L18.3191395,14.5331258 L21,14.5331258 L20.6859614,17.4446421 L18.3191395,17.4446421 L18.3191395,25 L18.3191395,25 Z" id="Facebook" fill="#FFFFFF"></path>
                        </g>
                    </g>
                </g>
            </g>
        </g>
    </g>
</svg>